[gd_scene load_steps=3 format=2]

[ext_resource path="res://Etsaiak/EtsaiaAmaiaK2/HealthDisplay/HealthDisplay.gd" type="Script" id=1]
[ext_resource path="res://Etsaiak/EtsaiaAmaiaK2/HealthDisplay/bar_grey.png" type="Texture" id=2]

[node name="HealthDisplay" type="Node2D"]
script = ExtResource( 1 )

[node name="HealthBar" type="TextureProgress" parent="."]
margin_left = 0.629959
margin_top = 0.629967
margin_right = 190.63
margin_bottom = 45.63
value = 100.0
texture_under = ExtResource( 2 )
__meta__ = {
"_edit_use_anchors_": false
}
