[gd_scene load_steps=6 format=2]

[ext_resource path="res://Etsaiak/Etsaia jarraitzailea salto.gd" type="Script" id=1]
[ext_resource path="res://Etsaiak/Irudiak/adventurer_tilesheet.png" type="Texture" id=2]


[sub_resource type="CircleShape2D" id=1]
radius = 37.4355

[sub_resource type="Animation" id=2]
resource_name = "Idle_abajo"

[sub_resource type="Animation" id=3]
resource_name = "Idle_lateral"
length = 0.1
tracks/0/type = "value"
tracks/0/path = NodePath("Sprite1:frame")
tracks/0/interp = 1
tracks/0/loop_wrap = true
tracks/0/imported = false
tracks/0/enabled = true
tracks/0/keys = {
"times": PoolRealArray( 0 ),
"transitions": PoolRealArray( 1 ),
"update": 1,
"values": [ 0 ]
}

[node name="Etsaia" type="KinematicBody2D"]
position = Vector2( 452.967, 239.024 )
script = ExtResource( 1 )

[node name="Sprite1" type="Sprite" parent="."]
position = Vector2( -0.795776, -8.42978 )
scale = Vector2( 0.758837, 0.749928 )
texture = ExtResource( 2 )
vframes = 3
hframes = 9

[node name="CollisionShape2D" type="CollisionShape2D" parent="."]
position = Vector2( 0.315063, 0.323914 )
shape = SubResource( 1 )

[node name="AnimationPlayer" type="AnimationPlayer" parent="."]
anims/Idle_abajo = SubResource( 2 )
anims/Idle_lateral = SubResource( 3 )

[node name="RayCast2D" type="RayCast2D" parent="."]
position = Vector2( -10.6635, -39.8473 )
rotation = -1.5708
enabled = true
cast_to = Vector2( 0, 100 )
